%YAML 1.1
%TAG !u! tag:unity3d.com,2011:
--- !u!29 &1
OcclusionCullingSettings:
  m_ObjectHideFlags: 0
  serializedVersion: 2
  m_OcclusionBakeSettings:
    smallestOccluder: 5
    smallestHole: 0.25
    backfaceThreshold: 100
  m_SceneGUID: 00000000000000000000000000000000
  m_OcclusionCullingData: {fileID: 0}
--- !u!104 &2
RenderSettings:
  m_ObjectHideFlags: 0
  serializedVersion: 9
  m_Fog: 0
  m_FogColor: {r: 0.5, g: 0.5, b: 0.5, a: 1}
  m_FogMode: 3
  m_FogDensity: 0.01
  m_LinearFogStart: 0
  m_LinearFogEnd: 300
  m_AmbientSkyColor: {r: 0.212, g: 0.227, b: 0.259, a: 1}
  m_AmbientEquatorColor: {r: 0.114, g: 0.125, b: 0.133, a: 1}
  m_AmbientGroundColor: {r: 0.047, g: 0.043, b: 0.035, a: 1}
  m_AmbientIntensity: 1
  m_AmbientMode: 3
  m_SubtractiveShadowColor: {r: 0.42, g: 0.478, b: 0.627, a: 1}
  m_SkyboxMaterial: {fileID: 0}
  m_HaloStrength: 0.5
  m_FlareStrength: 1
  m_FlareFadeSpeed: 3
  m_HaloTexture: {fileID: 0}
  m_SpotCookie: {fileID: 10001, guid: 0000000000000000e000000000000000, type: 0}
  m_DefaultReflectionMode: 0
  m_DefaultReflectionResolution: 128
  m_ReflectionBounces: 1
  m_ReflectionIntensity: 1
  m_CustomReflection: {fileID: 0}
  m_Sun: {fileID: 0}
  m_IndirectSpecularColor: {r: 0, g: 0, b: 0, a: 1}
  m_UseRadianceAmbientProbe: 0
--- !u!157 &3
LightmapSettings:
  m_ObjectHideFlags: 0
  serializedVersion: 12
  m_GIWorkflowMode: 1
  m_GISettings:
    serializedVersion: 2
    m_BounceScale: 1
    m_IndirectOutputScale: 1
    m_AlbedoBoost: 1
    m_EnvironmentLightingMode: 0
    m_EnableBakedLightmaps: 0
    m_EnableRealtimeLightmaps: 0
  m_LightmapEditorSettings:
    serializedVersion: 12
    m_Resolution: 2
    m_BakeResolution: 40
    m_AtlasSize: 1024
    m_AO: 0
    m_AOMaxDistance: 1
    m_CompAOExponent: 1
    m_CompAOExponentDirect: 0
    m_ExtractAmbientOcclusion: 0
    m_Padding: 2
    m_LightmapParameters: {fileID: 0}
    m_LightmapsBakeMode: 1
    m_TextureCompression: 1
    m_FinalGather: 0
    m_FinalGatherFiltering: 1
    m_FinalGatherRayCount: 256
    m_ReflectionCompression: 2
    m_MixedBakeMode: 2
    m_BakeBackend: 0
    m_PVRSampling: 1
    m_PVRDirectSampleCount: 32
    m_PVRSampleCount: 500
    m_PVRBounces: 2
    m_PVREnvironmentSampleCount: 500
    m_PVREnvironmentReferencePointCount: 2048
    m_PVRFilteringMode: 2
    m_PVRDenoiserTypeDirect: 0
    m_PVRDenoiserTypeIndirect: 0
    m_PVRDenoiserTypeAO: 0
    m_PVRFilterTypeDirect: 0
    m_PVRFilterTypeIndirect: 0
    m_PVRFilterTypeAO: 0
    m_PVREnvironmentMIS: 0
    m_PVRCulling: 1
    m_PVRFilteringGaussRadiusDirect: 1
    m_PVRFilteringGaussRadiusIndirect: 5
    m_PVRFilteringGaussRadiusAO: 2
    m_PVRFilteringAtrousPositionSigmaDirect: 0.5
    m_PVRFilteringAtrousPositionSigmaIndirect: 2
    m_PVRFilteringAtrousPositionSigmaAO: 1
    m_ExportTrainingData: 0
    m_TrainingDataDestination: TrainingData
    m_LightProbeSampleCountMultiplier: 4
  m_LightingDataAsset: {fileID: 0}
  m_LightingSettings: {fileID: 0}
--- !u!196 &4
NavMeshSettings:
  serializedVersion: 2
  m_ObjectHideFlags: 0
  m_BuildSettings:
    serializedVersion: 2
    agentTypeID: 0
    agentRadius: 0.5
    agentHeight: 2
    agentSlope: 45
    agentClimb: 0.4
    ledgeDropHeight: 0
    maxJumpAcrossDistance: 0
    minRegionArea: 2
    manualCellSize: 0
    cellSize: 0.16666667
    manualTileSize: 0
    tileSize: 256
    accuratePlacement: 0
    maxJobWorkers: 0
    preserveTilesOutsideBounds: 0
    debug:
      m_Flags: 0
  m_NavMeshData: {fileID: 0}
--- !u!90 &17736229
Avatar:
  m_ObjectHideFlags: 0
  m_CorrespondingSourceObject: {fileID: 0}
  m_PrefabInstance: {fileID: 0}
  m_PrefabAsset: {fileID: 0}
  m_Name: Automatic Avatar
  m_AvatarSize: 500
  m_Avatar:
    serializedVersion: 3
    m_AvatarSkeleton:
      data:
        m_Node:
        - m_ParentId: -1
          m_AxesId: -1
        m_ID: 00000000
        m_AxesArray: []
    m_AvatarSkeletonPose:
      data:
        m_X:
        - t: {x: 0, y: 0.91, z: 0}
          q: {x: 0, y: 0, z: 0, w: 1}
          s: {x: 0.5, y: 0.5, z: 1}
    m_DefaultPose:
      data:
        m_X:
        - t: {x: 0, y: 0.91, z: 0}
          q: {x: 0, y: 0, z: 0, w: 1}
          s: {x: 0.5, y: 0.5, z: 1}
    m_SkeletonNameIDArray: 00000000
    m_Human:
      data:
        serializedVersion: 2
        m_RootX:
          t: {x: 0, y: 0, z: 0}
          q: {x: 0, y: 0, z: 0, w: 1}
          s: {x: 1, y: 1, z: 1}
        m_Skeleton:
          data:
            m_Node: []
            m_ID: 
            m_AxesArray: []
        m_SkeletonPose:
          data:
            m_X: []
        m_LeftHand:
          data:
            m_HandBoneIndex: ffffffffffffffffffffffffffffffffffffffffffffffffffffffffffffffffffffffffffffffffffffffffffffffffffffffffffffffffffffffff
        m_RightHand:
          data:
            m_HandBoneIndex: ffffffffffffffffffffffffffffffffffffffffffffffffffffffffffffffffffffffffffffffffffffffffffffffffffffffffffffffffffffffff
        m_HumanBoneIndex: ffffffffffffffffffffffffffffffffffffffffffffffffffffffffffffffffffffffffffffffffffffffffffffffffffffffffffffffffffffffffffffffffffffffffffffffffffffffffffffffffffffffffffffffffffffffffffffffffffffffff
        m_HumanBoneMass:
        - 0.14545456
        - 0.12121213
        - 0.12121213
        - 0.048484854
        - 0.048484854
        - 0.009696971
        - 0.009696971
        - 0.030303033
        - 0.14545456
        - 0.14545456
        - 0.012121214
        - 0.048484854
        - 0.006060607
        - 0.006060607
        - 0.024242427
        - 0.024242427
        - 0.01818182
        - 0.01818182
        - 0.006060607
        - 0.006060607
        - 0.0024242427
        - 0.0024242427
        - 0
        - 0
        - 0
        m_Scale: 1
        m_ArmTwist: 0.5
        m_ForeArmTwist: 0.5
        m_UpperLegTwist: 0.5
        m_LegTwist: 0.5
        m_ArmStretch: 0.05
        m_LegStretch: 0.05
        m_FeetSpacing: 0
        m_HasLeftHand: 0
        m_HasRightHand: 0
        m_HasTDoF: 0
    m_HumanSkeletonIndexArray: 
    m_HumanSkeletonReverseIndexArray: 
    m_RootMotionBoneIndex: -1
    m_RootMotionBoneX:
      t: {x: 0, y: 0, z: 0}
      q: {x: 0, y: 0, z: 0, w: 1}
      s: {x: 1, y: 1, z: 1}
    m_RootMotionSkeleton:
      data:
        m_Node: []
        m_ID: 
        m_AxesArray: []
    m_RootMotionSkeletonPose:
      data:
        m_X: []
    m_RootMotionSkeletonIndexArray: 
  m_TOS:
    0: 
  m_HumanDescription:
    serializedVersion: 3
    m_Human: []
    m_Skeleton: []
    m_ArmTwist: 0.5
    m_ForeArmTwist: 0.5
    m_UpperLegTwist: 0.5
    m_LegTwist: 0.5
    m_ArmStretch: 0.05
    m_LegStretch: 0.05
    m_FeetSpacing: 0
    m_GlobalScale: 1
    m_RootMotionBoneName: 
    m_HasTranslationDoF: 0
    m_HasExtraRoot: 0
    m_SkeletonHasParents: 1
--- !u!1001 &465951504
PrefabInstance:
  m_ObjectHideFlags: 0
  serializedVersion: 2
  m_Modification:
    m_TransformParent: {fileID: 580507449}
    m_Modifications:
    - target: {fileID: 2205472926762497882, guid: 36fc126a6a73eafed9c35bfb71455b0d, type: 3}
      propertyPath: m_Size.x
      value: 4.58946
      objectReference: {fileID: 0}
    - target: {fileID: 3685539453756221679, guid: 36fc126a6a73eafed9c35bfb71455b0d, type: 3}
      propertyPath: m_SpriteTilingProperty.newSize.x
      value: 7.1131797
      objectReference: {fileID: 0}
    - target: {fileID: 4517826030834332539, guid: 36fc126a6a73eafed9c35bfb71455b0d, type: 3}
      propertyPath: m_RootOrder
      value: 3
      objectReference: {fileID: 0}
    - target: {fileID: 4517826030834332539, guid: 36fc126a6a73eafed9c35bfb71455b0d, type: 3}
      propertyPath: m_LocalPosition.x
      value: 3.31
      objectReference: {fileID: 0}
    - target: {fileID: 4517826030834332539, guid: 36fc126a6a73eafed9c35bfb71455b0d, type: 3}
      propertyPath: m_LocalPosition.y
      value: 2.32
      objectReference: {fileID: 0}
    - target: {fileID: 4517826030834332539, guid: 36fc126a6a73eafed9c35bfb71455b0d, type: 3}
      propertyPath: m_LocalPosition.z
      value: 0
      objectReference: {fileID: 0}
    - target: {fileID: 4517826030834332539, guid: 36fc126a6a73eafed9c35bfb71455b0d, type: 3}
      propertyPath: m_LocalRotation.w
      value: 1
      objectReference: {fileID: 0}
    - target: {fileID: 4517826030834332539, guid: 36fc126a6a73eafed9c35bfb71455b0d, type: 3}
      propertyPath: m_LocalRotation.x
      value: -0
      objectReference: {fileID: 0}
    - target: {fileID: 4517826030834332539, guid: 36fc126a6a73eafed9c35bfb71455b0d, type: 3}
      propertyPath: m_LocalRotation.y
      value: -0
      objectReference: {fileID: 0}
    - target: {fileID: 4517826030834332539, guid: 36fc126a6a73eafed9c35bfb71455b0d, type: 3}
      propertyPath: m_LocalRotation.z
      value: -0
      objectReference: {fileID: 0}
    - target: {fileID: 4517826030834332539, guid: 36fc126a6a73eafed9c35bfb71455b0d, type: 3}
      propertyPath: m_LocalEulerAnglesHint.x
      value: 0
      objectReference: {fileID: 0}
    - target: {fileID: 4517826030834332539, guid: 36fc126a6a73eafed9c35bfb71455b0d, type: 3}
      propertyPath: m_LocalEulerAnglesHint.y
      value: 0
      objectReference: {fileID: 0}
    - target: {fileID: 4517826030834332539, guid: 36fc126a6a73eafed9c35bfb71455b0d, type: 3}
      propertyPath: m_LocalEulerAnglesHint.z
      value: 0
      objectReference: {fileID: 0}
    - target: {fileID: 6907855610711341714, guid: 36fc126a6a73eafed9c35bfb71455b0d, type: 3}
      propertyPath: m_Name
      value: Platform (3)
      objectReference: {fileID: 0}
    m_RemovedComponents: []
  m_SourcePrefab: {fileID: 100100000, guid: 36fc126a6a73eafed9c35bfb71455b0d, type: 3}
--- !u!1 &519420028
GameObject:
  m_ObjectHideFlags: 0
  m_CorrespondingSourceObject: {fileID: 0}
  m_PrefabInstance: {fileID: 0}
  m_PrefabAsset: {fileID: 0}
  serializedVersion: 6
  m_Component:
  - component: {fileID: 519420032}
  - component: {fileID: 519420031}
  - component: {fileID: 519420029}
  - component: {fileID: 519420030}
  m_Layer: 0
  m_Name: Main Camera
  m_TagString: MainCamera
  m_Icon: {fileID: 0}
  m_NavMeshLayer: 0
  m_StaticEditorFlags: 0
  m_IsActive: 1
--- !u!81 &519420029
AudioListener:
  m_ObjectHideFlags: 0
  m_CorrespondingSourceObject: {fileID: 0}
  m_PrefabInstance: {fileID: 0}
  m_PrefabAsset: {fileID: 0}
  m_GameObject: {fileID: 519420028}
  m_Enabled: 1
--- !u!114 &519420030
MonoBehaviour:
  m_ObjectHideFlags: 0
  m_CorrespondingSourceObject: {fileID: 0}
  m_PrefabInstance: {fileID: 0}
  m_PrefabAsset: {fileID: 0}
  m_GameObject: {fileID: 519420028}
  m_Enabled: 1
  m_EditorHideFlags: 0
  m_Script: {fileID: 11500000, guid: a79441f348de89743a2939f4d699eac1, type: 3}
  m_Name: 
  m_EditorClassIdentifier: 
  m_RenderShadows: 1
  m_RequiresDepthTextureOption: 2
  m_RequiresOpaqueTextureOption: 2
  m_CameraType: 0
  m_Cameras: []
  m_RendererIndex: -1
  m_VolumeLayerMask:
    serializedVersion: 2
    m_Bits: 1
  m_VolumeTrigger: {fileID: 0}
  m_RenderPostProcessing: 1
  m_Antialiasing: 0
  m_AntialiasingQuality: 2
  m_StopNaN: 0
  m_Dithering: 0
  m_ClearDepth: 1
  m_AllowXRRendering: 1
  m_RequiresDepthTexture: 0
  m_RequiresColorTexture: 0
  m_Version: 2
--- !u!20 &519420031
Camera:
  m_ObjectHideFlags: 0
  m_CorrespondingSourceObject: {fileID: 0}
  m_PrefabInstance: {fileID: 0}
  m_PrefabAsset: {fileID: 0}
  m_GameObject: {fileID: 519420028}
  m_Enabled: 1
  serializedVersion: 2
  m_ClearFlags: 2
  m_BackGroundColor: {r: 1, g: 1, b: 1, a: 0}
  m_projectionMatrixMode: 1
  m_GateFitMode: 2
  m_FOVAxisMode: 0
  m_SensorSize: {x: 36, y: 24}
  m_LensShift: {x: 0, y: 0}
  m_FocalLength: 50
  m_NormalizedViewPortRect:
    serializedVersion: 2
    x: 0
    y: 0
    width: 1
    height: 1
  near clip plane: 0.3
  far clip plane: 1000
  field of view: 60
  orthographic: 1
  orthographic size: 5
  m_Depth: -1
  m_CullingMask:
    serializedVersion: 2
    m_Bits: 4294967295
  m_RenderingPath: -1
  m_TargetTexture: {fileID: 0}
  m_TargetDisplay: 0
  m_TargetEye: 0
  m_HDR: 1
  m_AllowMSAA: 0
  m_AllowDynamicResolution: 0
  m_ForceIntoRT: 0
  m_OcclusionCulling: 0
  m_StereoConvergence: 10
  m_StereoSeparation: 0.022
--- !u!4 &519420032
Transform:
  m_ObjectHideFlags: 0
  m_CorrespondingSourceObject: {fileID: 0}
  m_PrefabInstance: {fileID: 0}
  m_PrefabAsset: {fileID: 0}
  m_GameObject: {fileID: 519420028}
  m_LocalRotation: {x: 0, y: 0, z: 0, w: 1}
  m_LocalPosition: {x: 0, y: 0, z: -10}
  m_LocalScale: {x: 1, y: 1, z: 1}
  m_Children: []
  m_Father: {fileID: 0}
  m_RootOrder: 0
  m_LocalEulerAnglesHint: {x: 0, y: 0, z: 0}
--- !u!1 &580507448
GameObject:
  m_ObjectHideFlags: 0
  m_CorrespondingSourceObject: {fileID: 0}
  m_PrefabInstance: {fileID: 0}
  m_PrefabAsset: {fileID: 0}
  serializedVersion: 6
  m_Component:
  - component: {fileID: 580507449}
  m_Layer: 0
  m_Name: Platforms
  m_TagString: Untagged
  m_Icon: {fileID: 0}
  m_NavMeshLayer: 0
  m_StaticEditorFlags: 0
  m_IsActive: 1
--- !u!4 &580507449
Transform:
  m_ObjectHideFlags: 0
  m_CorrespondingSourceObject: {fileID: 0}
  m_PrefabInstance: {fileID: 0}
  m_PrefabAsset: {fileID: 0}
  m_GameObject: {fileID: 580507448}
  m_LocalRotation: {x: 0, y: 0, z: 0, w: 1}
  m_LocalPosition: {x: 0, y: 0, z: 0}
  m_LocalScale: {x: 1, y: 1, z: 1}
  m_Children:
  - {fileID: 1120580251}
  - {fileID: 809042393}
  - {fileID: 1948913925}
  - {fileID: 1788244659}
  m_Father: {fileID: 0}
  m_RootOrder: 1
  m_LocalEulerAnglesHint: {x: 0, y: 0, z: 0}
--- !u!1001 &612895893
PrefabInstance:
  m_ObjectHideFlags: 0
  serializedVersion: 2
  m_Modification:
    m_TransformParent: {fileID: 580507449}
    m_Modifications:
    - target: {fileID: 2205472926762497882, guid: 36fc126a6a73eafed9c35bfb71455b0d, type: 3}
      propertyPath: m_Size.x
      value: 29.27
      objectReference: {fileID: 0}
    - target: {fileID: 3685539453756221679, guid: 36fc126a6a73eafed9c35bfb71455b0d, type: 3}
      propertyPath: m_SpriteTilingProperty.newSize.x
      value: 7.981108
      objectReference: {fileID: 0}
    - target: {fileID: 4517826030834332539, guid: 36fc126a6a73eafed9c35bfb71455b0d, type: 3}
      propertyPath: m_RootOrder
      value: 0
      objectReference: {fileID: 0}
    - target: {fileID: 4517826030834332539, guid: 36fc126a6a73eafed9c35bfb71455b0d, type: 3}
      propertyPath: m_LocalPosition.x
      value: 0
      objectReference: {fileID: 0}
    - target: {fileID: 4517826030834332539, guid: 36fc126a6a73eafed9c35bfb71455b0d, type: 3}
      propertyPath: m_LocalPosition.y
      value: -2.69
      objectReference: {fileID: 0}
    - target: {fileID: 4517826030834332539, guid: 36fc126a6a73eafed9c35bfb71455b0d, type: 3}
      propertyPath: m_LocalPosition.z
      value: 0
      objectReference: {fileID: 0}
    - target: {fileID: 4517826030834332539, guid: 36fc126a6a73eafed9c35bfb71455b0d, type: 3}
      propertyPath: m_LocalRotation.w
      value: 1
      objectReference: {fileID: 0}
    - target: {fileID: 4517826030834332539, guid: 36fc126a6a73eafed9c35bfb71455b0d, type: 3}
      propertyPath: m_LocalRotation.x
      value: -0
      objectReference: {fileID: 0}
    - target: {fileID: 4517826030834332539, guid: 36fc126a6a73eafed9c35bfb71455b0d, type: 3}
      propertyPath: m_LocalRotation.y
      value: -0
      objectReference: {fileID: 0}
    - target: {fileID: 4517826030834332539, guid: 36fc126a6a73eafed9c35bfb71455b0d, type: 3}
      propertyPath: m_LocalRotation.z
      value: -0
      objectReference: {fileID: 0}
    - target: {fileID: 4517826030834332539, guid: 36fc126a6a73eafed9c35bfb71455b0d, type: 3}
      propertyPath: m_LocalEulerAnglesHint.x
      value: 0
      objectReference: {fileID: 0}
    - target: {fileID: 4517826030834332539, guid: 36fc126a6a73eafed9c35bfb71455b0d, type: 3}
      propertyPath: m_LocalEulerAnglesHint.y
      value: 0
      objectReference: {fileID: 0}
    - target: {fileID: 4517826030834332539, guid: 36fc126a6a73eafed9c35bfb71455b0d, type: 3}
      propertyPath: m_LocalEulerAnglesHint.z
      value: 0
      objectReference: {fileID: 0}
    - target: {fileID: 6907855610711341714, guid: 36fc126a6a73eafed9c35bfb71455b0d, type: 3}
      propertyPath: m_Name
      value: Platform
      objectReference: {fileID: 0}
    m_RemovedComponents: []
  m_SourcePrefab: {fileID: 100100000, guid: 36fc126a6a73eafed9c35bfb71455b0d, type: 3}
--- !u!4 &809042393 stripped
Transform:
  m_CorrespondingSourceObject: {fileID: 4517826030834332539, guid: 36fc126a6a73eafed9c35bfb71455b0d, type: 3}
  m_PrefabInstance: {fileID: 1780705345}
  m_PrefabAsset: {fileID: 0}
--- !u!4 &1120580251 stripped
Transform:
  m_CorrespondingSourceObject: {fileID: 4517826030834332539, guid: 36fc126a6a73eafed9c35bfb71455b0d, type: 3}
  m_PrefabInstance: {fileID: 612895893}
  m_PrefabAsset: {fileID: 0}
--- !u!1 &1340240647
GameObject:
  m_ObjectHideFlags: 0
  m_CorrespondingSourceObject: {fileID: 0}
  m_PrefabInstance: {fileID: 0}
  m_PrefabAsset: {fileID: 0}
  serializedVersion: 6
  m_Component:
  - component: {fileID: 1340240649}
  - component: {fileID: 1340240648}
  m_Layer: 0
  m_Name: Global Volume
  m_TagString: Untagged
  m_Icon: {fileID: 0}
  m_NavMeshLayer: 0
  m_StaticEditorFlags: 0
  m_IsActive: 1
--- !u!114 &1340240648
MonoBehaviour:
  m_ObjectHideFlags: 0
  m_CorrespondingSourceObject: {fileID: 0}
  m_PrefabInstance: {fileID: 0}
  m_PrefabAsset: {fileID: 0}
  m_GameObject: {fileID: 1340240647}
  m_Enabled: 1
  m_EditorHideFlags: 0
  m_Script: {fileID: 11500000, guid: 172515602e62fb746b5d573b38a5fe58, type: 3}
  m_Name: 
  m_EditorClassIdentifier: 
  isGlobal: 1
  priority: 0
  blendDistance: 0
  weight: 1
  sharedProfile: {fileID: 11400000, guid: f98a2c8a63c91be4c8c0f17ac1e335e5, type: 2}
--- !u!4 &1340240649
Transform:
  m_ObjectHideFlags: 0
  m_CorrespondingSourceObject: {fileID: 0}
  m_PrefabInstance: {fileID: 0}
  m_PrefabAsset: {fileID: 0}
  m_GameObject: {fileID: 1340240647}
  m_LocalRotation: {x: 0, y: 0, z: 0, w: 1}
  m_LocalPosition: {x: 0.060955144, y: 1.0740129, z: -5.246594}
  m_LocalScale: {x: 1, y: 1, z: 1}
  m_Children: []
  m_Father: {fileID: 0}
  m_RootOrder: 3
  m_LocalEulerAnglesHint: {x: 0, y: 0, z: 0}
--- !u!1001 &1751613355
PrefabInstance:
  m_ObjectHideFlags: 0
  serializedVersion: 2
  m_Modification:
    m_TransformParent: {fileID: 580507449}
    m_Modifications:
    - target: {fileID: 2205472926762497882, guid: 36fc126a6a73eafed9c35bfb71455b0d, type: 3}
      propertyPath: m_Size.x
      value: 11.259291
      objectReference: {fileID: 0}
    - target: {fileID: 3685539453756221679, guid: 36fc126a6a73eafed9c35bfb71455b0d, type: 3}
      propertyPath: m_SpriteTilingProperty.newSize.x
      value: 7.1131797
      objectReference: {fileID: 0}
    - target: {fileID: 4517826030834332539, guid: 36fc126a6a73eafed9c35bfb71455b0d, type: 3}
      propertyPath: m_RootOrder
      value: 2
      objectReference: {fileID: 0}
    - target: {fileID: 4517826030834332539, guid: 36fc126a6a73eafed9c35bfb71455b0d, type: 3}
      propertyPath: m_LocalPosition.x
      value: -3.1865
      objectReference: {fileID: 0}
    - target: {fileID: 4517826030834332539, guid: 36fc126a6a73eafed9c35bfb71455b0d, type: 3}
      propertyPath: m_LocalPosition.y
      value: 0.35
      objectReference: {fileID: 0}
    - target: {fileID: 4517826030834332539, guid: 36fc126a6a73eafed9c35bfb71455b0d, type: 3}
      propertyPath: m_LocalPosition.z
      value: 0
      objectReference: {fileID: 0}
    - target: {fileID: 4517826030834332539, guid: 36fc126a6a73eafed9c35bfb71455b0d, type: 3}
      propertyPath: m_LocalRotation.w
      value: 1
      objectReference: {fileID: 0}
    - target: {fileID: 4517826030834332539, guid: 36fc126a6a73eafed9c35bfb71455b0d, type: 3}
      propertyPath: m_LocalRotation.x
      value: -0
      objectReference: {fileID: 0}
    - target: {fileID: 4517826030834332539, guid: 36fc126a6a73eafed9c35bfb71455b0d, type: 3}
      propertyPath: m_LocalRotation.y
      value: -0
      objectReference: {fileID: 0}
    - target: {fileID: 4517826030834332539, guid: 36fc126a6a73eafed9c35bfb71455b0d, type: 3}
      propertyPath: m_LocalRotation.z
      value: -0
      objectReference: {fileID: 0}
    - target: {fileID: 4517826030834332539, guid: 36fc126a6a73eafed9c35bfb71455b0d, type: 3}
      propertyPath: m_LocalEulerAnglesHint.x
      value: 0
      objectReference: {fileID: 0}
    - target: {fileID: 4517826030834332539, guid: 36fc126a6a73eafed9c35bfb71455b0d, type: 3}
      propertyPath: m_LocalEulerAnglesHint.y
      value: 0
      objectReference: {fileID: 0}
    - target: {fileID: 4517826030834332539, guid: 36fc126a6a73eafed9c35bfb71455b0d, type: 3}
      propertyPath: m_LocalEulerAnglesHint.z
      value: 0
      objectReference: {fileID: 0}
    - target: {fileID: 6907855610711341714, guid: 36fc126a6a73eafed9c35bfb71455b0d, type: 3}
      propertyPath: m_Name
      value: Platform (2)
      objectReference: {fileID: 0}
    m_RemovedComponents: []
  m_SourcePrefab: {fileID: 100100000, guid: 36fc126a6a73eafed9c35bfb71455b0d, type: 3}
--- !u!1001 &1780705345
PrefabInstance:
  m_ObjectHideFlags: 0
  serializedVersion: 2
  m_Modification:
    m_TransformParent: {fileID: 580507449}
    m_Modifications:
    - target: {fileID: 2205472926762497882, guid: 36fc126a6a73eafed9c35bfb71455b0d, type: 3}
      propertyPath: m_Size.x
      value: 7.1131797
      objectReference: {fileID: 0}
    - target: {fileID: 3685539453756221679, guid: 36fc126a6a73eafed9c35bfb71455b0d, type: 3}
      propertyPath: m_SpriteTilingProperty.newSize.x
      value: 7.1131797
      objectReference: {fileID: 0}
    - target: {fileID: 4517826030834332539, guid: 36fc126a6a73eafed9c35bfb71455b0d, type: 3}
      propertyPath: m_RootOrder
      value: 1
      objectReference: {fileID: 0}
    - target: {fileID: 4517826030834332539, guid: 36fc126a6a73eafed9c35bfb71455b0d, type: 3}
      propertyPath: m_LocalPosition.x
      value: 5.42
      objectReference: {fileID: 0}
    - target: {fileID: 4517826030834332539, guid: 36fc126a6a73eafed9c35bfb71455b0d, type: 3}
      propertyPath: m_LocalPosition.y
      value: -0.52
      objectReference: {fileID: 0}
    - target: {fileID: 4517826030834332539, guid: 36fc126a6a73eafed9c35bfb71455b0d, type: 3}
      propertyPath: m_LocalPosition.z
      value: 0
      objectReference: {fileID: 0}
    - target: {fileID: 4517826030834332539, guid: 36fc126a6a73eafed9c35bfb71455b0d, type: 3}
      propertyPath: m_LocalRotation.w
      value: 1
      objectReference: {fileID: 0}
    - target: {fileID: 4517826030834332539, guid: 36fc126a6a73eafed9c35bfb71455b0d, type: 3}
      propertyPath: m_LocalRotation.x
      value: -0
      objectReference: {fileID: 0}
    - target: {fileID: 4517826030834332539, guid: 36fc126a6a73eafed9c35bfb71455b0d, type: 3}
      propertyPath: m_LocalRotation.y
      value: -0
      objectReference: {fileID: 0}
    - target: {fileID: 4517826030834332539, guid: 36fc126a6a73eafed9c35bfb71455b0d, type: 3}
      propertyPath: m_LocalRotation.z
      value: -0
      objectReference: {fileID: 0}
    - target: {fileID: 4517826030834332539, guid: 36fc126a6a73eafed9c35bfb71455b0d, type: 3}
      propertyPath: m_LocalEulerAnglesHint.x
      value: 0
      objectReference: {fileID: 0}
    - target: {fileID: 4517826030834332539, guid: 36fc126a6a73eafed9c35bfb71455b0d, type: 3}
      propertyPath: m_LocalEulerAnglesHint.y
      value: 0
      objectReference: {fileID: 0}
    - target: {fileID: 4517826030834332539, guid: 36fc126a6a73eafed9c35bfb71455b0d, type: 3}
      propertyPath: m_LocalEulerAnglesHint.z
      value: 0
      objectReference: {fileID: 0}
    - target: {fileID: 6907855610711341714, guid: 36fc126a6a73eafed9c35bfb71455b0d, type: 3}
      propertyPath: m_Name
      value: Platform (1)
      objectReference: {fileID: 0}
    m_RemovedComponents: []
  m_SourcePrefab: {fileID: 100100000, guid: 36fc126a6a73eafed9c35bfb71455b0d, type: 3}
--- !u!4 &1788244659 stripped
Transform:
  m_CorrespondingSourceObject: {fileID: 4517826030834332539, guid: 36fc126a6a73eafed9c35bfb71455b0d, type: 3}
  m_PrefabInstance: {fileID: 465951504}
  m_PrefabAsset: {fileID: 0}
--- !u!4 &1948913925 stripped
Transform:
  m_CorrespondingSourceObject: {fileID: 4517826030834332539, guid: 36fc126a6a73eafed9c35bfb71455b0d, type: 3}
  m_PrefabInstance: {fileID: 1751613355}
  m_PrefabAsset: {fileID: 0}
--- !u!1001 &7930983743625759005
PrefabInstance:
  m_ObjectHideFlags: 0
  serializedVersion: 2
  m_Modification:
    m_TransformParent: {fileID: 0}
    m_Modifications:
    - target: {fileID: 1816399653212418143, guid: b86bd066a221f2597b6d363fc1d0852e, type: 3}
      propertyPath: m_Materials.Array.data[0]
      value: 
      objectReference: {fileID: 2100000, guid: e7fddb400c0dc03438dd420ebeaca4a1, type: 2}
    - target: {fileID: 3190145675595980236, guid: b86bd066a221f2597b6d363fc1d0852e, type: 3}
      propertyPath: m_LocalPosition.y
      value: 0
      objectReference: {fileID: 0}
    - target: {fileID: 5208697571894679297, guid: b86bd066a221f2597b6d363fc1d0852e, type: 3}
      propertyPath: m_Avatar
      value: 
      objectReference: {fileID: 17736229}
    - target: {fileID: 7425299844248954500, guid: b86bd066a221f2597b6d363fc1d0852e, type: 3}
      propertyPath: moveCurve.m_Curve.Array.size
      value: 2
      objectReference: {fileID: 0}
    - target: {fileID: 7425299844248954500, guid: b86bd066a221f2597b6d363fc1d0852e, type: 3}
      propertyPath: moveCurve.m_Curve.Array.data[1].time
      value: 1
      objectReference: {fileID: 0}
    - target: {fileID: 7425299844248954500, guid: b86bd066a221f2597b6d363fc1d0852e, type: 3}
      propertyPath: moveCurve.m_Curve.Array.data[2].time
      value: 1
      objectReference: {fileID: 0}
    - target: {fileID: 7425299844248954500, guid: b86bd066a221f2597b6d363fc1d0852e, type: 3}
      propertyPath: moveCurve.m_Curve.Array.data[1].value
      value: 1
      objectReference: {fileID: 0}
    - target: {fileID: 7425299844248954500, guid: b86bd066a221f2597b6d363fc1d0852e, type: 3}
      propertyPath: moveCurve.m_Curve.Array.data[2].value
      value: 1
      objectReference: {fileID: 0}
    - target: {fileID: 7425299844248954500, guid: b86bd066a221f2597b6d363fc1d0852e, type: 3}
      propertyPath: moveCurve.m_Curve.Array.data[0].inSlope
      value: 2
      objectReference: {fileID: 0}
    - target: {fileID: 7425299844248954500, guid: b86bd066a221f2597b6d363fc1d0852e, type: 3}
      propertyPath: moveCurve.m_Curve.Array.data[1].inSlope
      value: 0
      objectReference: {fileID: 0}
    - target: {fileID: 7425299844248954500, guid: b86bd066a221f2597b6d363fc1d0852e, type: 3}
      propertyPath: moveCurve.m_Curve.Array.data[0].outSlope
      value: 2
      objectReference: {fileID: 0}
    - target: {fileID: 7425299844248954500, guid: b86bd066a221f2597b6d363fc1d0852e, type: 3}
      propertyPath: moveCurve.m_Curve.Array.data[1].inWeight
      value: 0
      objectReference: {fileID: 0}
    - target: {fileID: 7425299844248954500, guid: b86bd066a221f2597b6d363fc1d0852e, type: 3}
      propertyPath: moveCurve.m_Curve.Array.data[1].outSlope
      value: 0
      objectReference: {fileID: 0}
    - target: {fileID: 7425299844248954500, guid: b86bd066a221f2597b6d363fc1d0852e, type: 3}
      propertyPath: moveCurve.m_Curve.Array.data[1].outWeight
      value: 0
      objectReference: {fileID: 0}
    - target: {fileID: 7743152891786145892, guid: b86bd066a221f2597b6d363fc1d0852e, type: 3}
      propertyPath: InitialModule.startSize.minScalar
      value: 0
      objectReference: {fileID: 0}
    - target: {fileID: 7930983743895797044, guid: b86bd066a221f2597b6d363fc1d0852e, type: 3}
      propertyPath: m_SpriteTilingProperty.border.w
      value: 0.234375
      objectReference: {fileID: 0}
    - target: {fileID: 7930983743895797044, guid: b86bd066a221f2597b6d363fc1d0852e, type: 3}
      propertyPath: m_SpriteTilingProperty.border.x
      value: 0.234375
      objectReference: {fileID: 0}
    - target: {fileID: 7930983743895797044, guid: b86bd066a221f2597b6d363fc1d0852e, type: 3}
      propertyPath: m_SpriteTilingProperty.border.y
      value: 0.234375
      objectReference: {fileID: 0}
    - target: {fileID: 7930983743895797044, guid: b86bd066a221f2597b6d363fc1d0852e, type: 3}
      propertyPath: m_SpriteTilingProperty.border.z
      value: 0.234375
      objectReference: {fileID: 0}
    - target: {fileID: 7930983743895797044, guid: b86bd066a221f2597b6d363fc1d0852e, type: 3}
      propertyPath: m_SpriteTilingProperty.drawMode
      value: 0
      objectReference: {fileID: 0}
    - target: {fileID: 7930983743895797044, guid: b86bd066a221f2597b6d363fc1d0852e, type: 3}
      propertyPath: m_SpriteTilingProperty.oldSize.x
      value: 1
      objectReference: {fileID: 0}
    - target: {fileID: 7930983743895797044, guid: b86bd066a221f2597b6d363fc1d0852e, type: 3}
      propertyPath: m_SpriteTilingProperty.oldSize.y
      value: 1
      objectReference: {fileID: 0}
    - target: {fileID: 7930983743895797046, guid: b86bd066a221f2597b6d363fc1d0852e, type: 3}
      propertyPath: m_RootOrder
      value: 2
      objectReference: {fileID: 0}
    - target: {fileID: 7930983743895797046, guid: b86bd066a221f2597b6d363fc1d0852e, type: 3}
      propertyPath: m_LocalScale.x
      value: 0.5
      objectReference: {fileID: 0}
    - target: {fileID: 7930983743895797046, guid: b86bd066a221f2597b6d363fc1d0852e, type: 3}
      propertyPath: m_LocalScale.y
      value: 0.5
      objectReference: {fileID: 0}
    - target: {fileID: 7930983743895797046, guid: b86bd066a221f2597b6d363fc1d0852e, type: 3}
      propertyPath: m_LocalPosition.x
      value: 0
      objectReference: {fileID: 0}
    - target: {fileID: 7930983743895797046, guid: b86bd066a221f2597b6d363fc1d0852e, type: 3}
      propertyPath: m_LocalPosition.y
      value: 5.12
      objectReference: {fileID: 0}
    - target: {fileID: 7930983743895797046, guid: b86bd066a221f2597b6d363fc1d0852e, type: 3}
      propertyPath: m_LocalPosition.z
      value: 0
      objectReference: {fileID: 0}
    - target: {fileID: 7930983743895797046, guid: b86bd066a221f2597b6d363fc1d0852e, type: 3}
      propertyPath: m_LocalRotation.w
      value: 1
      objectReference: {fileID: 0}
    - target: {fileID: 7930983743895797046, guid: b86bd066a221f2597b6d363fc1d0852e, type: 3}
      propertyPath: m_LocalRotation.x
      value: 0
      objectReference: {fileID: 0}
    - target: {fileID: 7930983743895797046, guid: b86bd066a221f2597b6d363fc1d0852e, type: 3}
      propertyPath: m_LocalRotation.y
      value: 0
      objectReference: {fileID: 0}
    - target: {fileID: 7930983743895797046, guid: b86bd066a221f2597b6d363fc1d0852e, type: 3}
      propertyPath: m_LocalRotation.z
      value: 0
      objectReference: {fileID: 0}
    - target: {fileID: 7930983743895797046, guid: b86bd066a221f2597b6d363fc1d0852e, type: 3}
      propertyPath: m_LocalEulerAnglesHint.x
      value: 0
      objectReference: {fileID: 0}
    - target: {fileID: 7930983743895797046, guid: b86bd066a221f2597b6d363fc1d0852e, type: 3}
      propertyPath: m_LocalEulerAnglesHint.y
      value: 0
      objectReference: {fileID: 0}
    - target: {fileID: 7930983743895797046, guid: b86bd066a221f2597b6d363fc1d0852e, type: 3}
      propertyPath: m_LocalEulerAnglesHint.z
      value: 0
      objectReference: {fileID: 0}
    - target: {fileID: 7930983743895797047, guid: b86bd066a221f2597b6d363fc1d0852e, type: 3}
      propertyPath: m_Color.b
      value: 0.95817834
      objectReference: {fileID: 0}
    - target: {fileID: 7930983743895797047, guid: b86bd066a221f2597b6d363fc1d0852e, type: 3}
      propertyPath: m_Color.g
      value: 0.5058824
      objectReference: {fileID: 0}
    - target: {fileID: 7930983743895797047, guid: b86bd066a221f2597b6d363fc1d0852e, type: 3}
      propertyPath: m_Color.r
      value: 1
      objectReference: {fileID: 0}
    - target: {fileID: 7930983743895797047, guid: b86bd066a221f2597b6d363fc1d0852e, type: 3}
      propertyPath: m_DrawMode
      value: 0
      objectReference: {fileID: 0}
    - target: {fileID: 7930983743895797050, guid: b86bd066a221f2597b6d363fc1d0852e, type: 3}
      propertyPath: m_Name
      value: Player
      objectReference: {fileID: 0}
    m_RemovedComponents: []
  m_SourcePrefab: {fileID: 100100000, guid: b86bd066a221f2597b6d363fc1d0852e, type: 3}
